{
  "BurstVersion": "44dde17b-b74e-4847-ac96-fa1d80d6d096",
  "Assemblies": [
    {
      "FullName": "Unity.2D.Animation.Editor, Version=0.0.0.0, Culture=neutral, PublicKeyToken=null",
      "LastWriteTime": "2023-09-13T15:05:12.3187908Z"
    },
    {
      "FullName": "mscorlib, Version=4.0.0.0, Culture=neutral, PublicKeyToken=b77a5c561934e089",
      "LastWriteTime": "2022-04-27T05:37:08Z"
    },
    {
      "FullName": "Unity.Mathematics, Version=1.0.0.0, Culture=neutral, PublicKeyToken=null",
      "LastWriteTime": "2023-09-13T15:05:12.5388334Z"
    },
    {
      "FullName": "Unity.Burst, Version=0.0.0.0, Culture=neutral, PublicKeyToken=null",
      "LastWriteTime": "2023-09-13T15:05:12.4718276Z"
    },
    {
      "FullName": "netstandard, Version=2.1.0.0, Culture=neutral, PublicKeyToken=cc7b13ffcd2ddd51",
      "LastWriteTime": "2022-04-27T05:37:08Z"
    },
    {
      "FullName": "UnityEngine.CoreModule, Version=0.0.0.0, Culture=neutral, PublicKeyToken=null",
      "LastWriteTime": "2022-04-27T05:54:08Z"
    },
    {
      "FullName": "UnityEditor.CoreModule, Version=0.0.0.0, Culture=neutral, PublicKeyToken=null",
      "LastWriteTime": "2022-04-27T05:54:08Z"
    },
    {
      "FullName": "Unity.2D.Common.Runtime, Version=0.0.0.0, Culture=neutral, PublicKeyToken=null",
      "LastWriteTime": "2023-09-13T15:05:12.5248319Z"
    },
    {
      "FullName": "Unity.2D.SpriteShape.Runtime, Version=0.0.0.0, Culture=neutral, PublicKeyToken=null",
      "LastWriteTime": "2023-09-13T15:05:12.5528357Z"
    },
    {
      "FullName": "UnityEngine.SpriteShapeModule, Version=0.0.0.0, Culture=neutral, PublicKeyToken=null",
      "LastWriteTime": "2022-04-27T05:54:08Z"
    },
    {
      "FullName": "Unity.RenderPipelines.Universal.Runtime, Version=0.0.0.0, Culture=neutral, PublicKeyToken=null",
      "LastWriteTime": "2023-09-13T15:05:12.6108386Z"
    },
    {
      "FullName": "mscorlib, Version=2.0.0.0, Culture=neutral, PublicKeyToken=b77a5c561934e089",
      "LastWriteTime": "2022-04-27T05:37:08Z"
    }
  ],
  "Functions": [
    {
      "FullName": "UnityEditor.U2D.Animation.TriangulationUtility, Unity.2D.Animation.Editor, Version=0.0.0.0, Culture=neutral, PublicKeyToken=null::ValidateCollinear(Unity.Mathematics.float2*, Unity.Mathematics, Version=1.0.0.0, Culture=neutral, PublicKeyToken=null|System.Int32, mscorlib, Version=4.0.0.0, Culture=neutral, PublicKeyToken=b77a5c561934e089|System.Single, mscorlib, Version=4.0.0.0, Culture=neutral, PublicKeyToken=b77a5c561934e089)",
      "ModuleOptionsHash": 15221144590354301703,
      "ModuleHash": "62e489df56e318d2bef50b54fdad9d6e",
      "LinkName": "7F9BDFAB3718C423",
      "AssemblyDependencyIndices": [
        0,
        1,
        2,
        3,
        4,
        5,
        6
      ]
    },
    {
      "FullName": "Unity.Burst.Intrinsics.X86, Unity.Burst, Version=0.0.0.0, Culture=neutral, PublicKeyToken=null::DoSetCSRTrampoline(System.Int32, mscorlib, Version=4.0.0.0, Culture=neutral, PublicKeyToken=b77a5c561934e089)",
      "ModuleOptionsHash": 15221144590354301703,
      "ModuleHash": "0d919bfb5124b407017668832d756e7c",
      "LinkName": "801E9A000BB37B05",
      "AssemblyDependencyIndices": [
        3,
        4,
        1
      ]
    },
    {
      "FullName": "UnityEditor.U2D.Animation.TriangulationUtility, Unity.2D.Animation.Editor, Version=0.0.0.0, Culture=neutral, PublicKeyToken=null::SubdivideBurst(Unity.Collections.Allocator, UnityEngine.CoreModule, Version=0.0.0.0, Culture=neutral, PublicKeyToken=null|Unity.Mathematics.float2*, Unity.Mathematics, Version=1.0.0.0, Culture=neutral, PublicKeyToken=null|System.Int32, mscorlib, Version=4.0.0.0, Culture=neutral, PublicKeyToken=b77a5c561934e089|Unity.Mathematics.int2*, Unity.Mathematics, Version=1.0.0.0, Culture=neutral, PublicKeyToken=null|System.Int32, mscorlib, Version=4.0.0.0, Culture=neutral, PublicKeyToken=b77a5c561934e089|Unity.Mathematics.float2*, Unity.Mathematics, Version=1.0.0.0, Culture=neutral, PublicKeyToken=null|System.Int32*, mscorlib, Version=4.0.0.0, Culture=neutral, PublicKeyToken=b77a5c561934e089|Unity.Mathematics.int2*, Unity.Mathematics, Version=1.0.0.0, Culture=neutral, PublicKeyToken=null|System.Int32, mscorlib, Version=4.0.0.0, Culture=neutral, PublicKeyToken=b77a5c561934e089|System.Single, mscorlib, Version=4.0.0.0, Culture=neutral, PublicKeyToken=b77a5c561934e089|System.Single, mscorlib, Version=4.0.0.0, Culture=neutral, PublicKeyToken=b77a5c561934e089|System.Int32, mscorlib, Version=4.0.0.0, Culture=neutral, PublicKeyToken=b77a5c561934e089|System.Int32, mscorlib, Version=4.0.0.0, Culture=neutral, PublicKeyToken=b77a5c561934e089|Unity.Mathematics.int3*, Unity.Mathematics, Version=1.0.0.0, Culture=neutral, PublicKeyToken=null)",
      "ModuleOptionsHash": 15221144590354301703,
      "ModuleHash": "42899e1a58f2aefa85c00481c6cbb4f8",
      "LinkName": "4E9252389FAD9FEE",
      "AssemblyDependencyIndices": [
        0,
        1,
        5,
        2,
        3,
        4,
        7,
        6
      ]
    },
    {
      "FullName": "Unity.Jobs.IJobExtensions+JobStruct`1[[UnityEngine.U2D.SpriteShapeGenerator, Unity.2D.SpriteShape.Runtime, Version=0.0.0.0, Culture=neutral, PublicKeyToken=null]], UnityEngine.CoreModule, Version=0.0.0.0, Culture=neutral, PublicKeyToken=null::Execute(UnityEngine.U2D.SpriteShapeGenerator&, Unity.2D.SpriteShape.Runtime, Version=0.0.0.0, Culture=neutral, PublicKeyToken=null|System.IntPtr, mscorlib, Version=4.0.0.0, Culture=neutral, PublicKeyToken=b77a5c561934e089|System.IntPtr, mscorlib, Version=4.0.0.0, Culture=neutral, PublicKeyToken=b77a5c561934e089|Unity.Jobs.LowLevel.Unsafe.JobRanges&, UnityEngine.CoreModule, Version=0.0.0.0, Culture=neutral, PublicKeyToken=null|System.Int32, mscorlib, Version=4.0.0.0, Culture=neutral, PublicKeyToken=b77a5c561934e089)",
      "ModuleOptionsHash": 15221144590354301703,
      "ModuleHash": "018a6185267dc60a11fbc9e7c4afd550",
      "LinkName": "104599FDEEB36FAE",
      "AssemblyDependencyIndices": [
        5,
        8,
        7,
        1,
        4,
        2,
        9
      ]
    },
    {
      "FullName": "UnityEditor.U2D.Animation.TriangulationUtility, Unity.2D.Animation.Editor, Version=0.0.0.0, Culture=neutral, PublicKeyToken=null::TessellateBurst(Unity.Collections.Allocator, UnityEngine.CoreModule, Version=0.0.0.0, Culture=neutral, PublicKeyToken=null|Unity.Mathematics.float2*, Unity.Mathematics, Version=1.0.0.0, Culture=neutral, PublicKeyToken=null|System.Int32, mscorlib, Version=4.0.0.0, Culture=neutral, PublicKeyToken=b77a5c561934e089|Unity.Mathematics.int2*, Unity.Mathematics, Version=1.0.0.0, Culture=neutral, PublicKeyToken=null|System.Int32, mscorlib, Version=4.0.0.0, Culture=neutral, PublicKeyToken=b77a5c561934e089|Unity.Mathematics.float2*, Unity.Mathematics, Version=1.0.0.0, Culture=neutral, PublicKeyToken=null|System.Int32*, mscorlib, Version=4.0.0.0, Culture=neutral, PublicKeyToken=b77a5c561934e089|Unity.Mathematics.int2*, Unity.Mathematics, Version=1.0.0.0, Culture=neutral, PublicKeyToken=null|System.Int32, mscorlib, Version=4.0.0.0, Culture=neutral, PublicKeyToken=b77a5c561934e089|Unity.Mathematics.int3*, Unity.Mathematics, Version=1.0.0.0, Culture=neutral, PublicKeyToken=null)",
      "ModuleOptionsHash": 15221144590354301703,
      "ModuleHash": "f0480e520516ba0b9ab8f4c6a16cac9b",
      "LinkName": "7D2E04AB7759F565",
      "AssemblyDependencyIndices": [
        0,
        1,
        5,
        2,
        4,
        3,
        7,
        6
      ]
    },
    {
      "FullName": "Unity.Burst.Intrinsics.X86, Unity.Burst, Version=0.0.0.0, Culture=neutral, PublicKeyToken=null::DoGetCSRTrampoline()",
      "ModuleOptionsHash": 15221144590354301703,
      "ModuleHash": "69fe5a845ae8957932c570dd70fb983a",
      "LinkName": "CDCA4A5193BE5947",
      "AssemblyDependencyIndices": [
        3,
        4,
        1
      ]
    },
    {
      "FullName": "Unity.Jobs.IJobForExtensions+ForJobStruct`1[[UnityEngine.Rendering.Universal.MinMaxZJob, Unity.RenderPipelines.Universal.Runtime, Version=0.0.0.0, Culture=neutral, PublicKeyToken=null]], UnityEngine.CoreModule, Version=0.0.0.0, Culture=neutral, PublicKeyToken=null::Execute(UnityEngine.Rendering.Universal.MinMaxZJob&, Unity.RenderPipelines.Universal.Runtime, Version=0.0.0.0, Culture=neutral, PublicKeyToken=null|System.IntPtr, mscorlib, Version=4.0.0.0, Culture=neutral, PublicKeyToken=b77a5c561934e089|System.IntPtr, mscorlib, Version=4.0.0.0, Culture=neutral, PublicKeyToken=b77a5c561934e089|Unity.Jobs.LowLevel.Unsafe.JobRanges&, UnityEngine.CoreModule, Version=0.0.0.0, Culture=neutral, PublicKeyToken=null|System.Int32, mscorlib, Version=4.0.0.0, Culture=neutral, PublicKeyToken=b77a5c561934e089)",
      "ModuleOptionsHash": 15221144590354301703,
      "ModuleHash": "fea96892f15b781ae73ea3d3e42efad9",
      "LinkName": "A03F6A9F19CA13EF",
      "AssemblyDependencyIndices": [
        5,
        10,
        2,
        1,
        4,
        11
      ]
    },
    {
      "FullName": "Unity.Jobs.IJobForExtensions+ForJobStruct`1[[UnityEngine.Rendering.Universal.SliceCombineJob, Unity.RenderPipelines.Universal.Runtime, Version=0.0.0.0, Culture=neutral, PublicKeyToken=null]], UnityEngine.CoreModule, Version=0.0.0.0, Culture=neutral, PublicKeyToken=null::Execute(UnityEngine.Rendering.Universal.SliceCombineJob&, Unity.RenderPipelines.Universal.Runtime, Version=0.0.0.0, Culture=neutral, PublicKeyToken=null|System.IntPtr, mscorlib, Version=4.0.0.0, Culture=neutral, PublicKeyToken=b77a5c561934e089|System.IntPtr, mscorlib, Version=4.0.0.0, Culture=neutral, PublicKeyToken=b77a5c561934e089|Unity.Jobs.LowLevel.Unsafe.JobRanges&, UnityEngine.CoreModule, Version=0.0.0.0, Culture=neutral, PublicKeyToken=null|System.Int32, mscorlib, Version=4.0.0.0, Culture=neutral, PublicKeyToken=b77a5c561934e089)",
      "ModuleOptionsHash": 15221144590354301703,
      "ModuleHash": "5d4eb66d181604484cfc49460f6e09cf",
      "LinkName": "84AB01371756165C",
      "AssemblyDependencyIndices": [
        5,
        10,
        1,
        2,
        4,
        11
      ]
    },
    {
      "FullName": "Unity.Jobs.IJobForExtensions+ForJobStruct`1[[UnityEngine.Rendering.Universal.LightExtractionJob, Unity.RenderPipelines.Universal.Runtime, Version=0.0.0.0, Culture=neutral, PublicKeyToken=null]], UnityEngine.CoreModule, Version=0.0.0.0, Culture=neutral, PublicKeyToken=null::Execute(UnityEngine.Rendering.Universal.LightExtractionJob&, Unity.RenderPipelines.Universal.Runtime, Version=0.0.0.0, Culture=neutral, PublicKeyToken=null|System.IntPtr, mscorlib, Version=4.0.0.0, Culture=neutral, PublicKeyToken=b77a5c561934e089|System.IntPtr, mscorlib, Version=4.0.0.0, Culture=neutral, PublicKeyToken=b77a5c561934e089|Unity.Jobs.LowLevel.Unsafe.JobRanges&, UnityEngine.CoreModule, Version=0.0.0.0, Culture=neutral, PublicKeyToken=null|System.Int32, mscorlib, Version=4.0.0.0, Culture=neutral, PublicKeyToken=b77a5c561934e089)",
      "ModuleOptionsHash": 15221144590354301703,
      "ModuleHash": "5285845b3a5e8bf540c3bdadd9cff468",
      "LinkName": "BE03A27DBA873915",
      "AssemblyDependencyIndices": [
        5,
        10,
        1,
        2,
        4,
        11
      ]
    },
    {
      "FullName": "Unity.Jobs.IJobExtensions+JobStruct`1[[UnityEngine.Rendering.Universal.RadixSortJob, Unity.RenderPipelines.Universal.Runtime, Version=0.0.0.0, Culture=neutral, PublicKeyToken=null]], UnityEngine.CoreModule, Version=0.0.0.0, Culture=neutral, PublicKeyToken=null::Execute(UnityEngine.Rendering.Universal.RadixSortJob&, Unity.RenderPipelines.Universal.Runtime, Version=0.0.0.0, Culture=neutral, PublicKeyToken=null|System.IntPtr, mscorlib, Version=4.0.0.0, Culture=neutral, PublicKeyToken=b77a5c561934e089|System.IntPtr, mscorlib, Version=4.0.0.0, Culture=neutral, PublicKeyToken=b77a5c561934e089|Unity.Jobs.LowLevel.Unsafe.JobRanges&, UnityEngine.CoreModule, Version=0.0.0.0, Culture=neutral, PublicKeyToken=null|System.Int32, mscorlib, Version=4.0.0.0, Culture=neutral, PublicKeyToken=b77a5c561934e089)",
      "ModuleOptionsHash": 15221144590354301703,
      "ModuleHash": "807fcba015daa581e30fa7627adbf523",
      "LinkName": "61C3A28A28E7C7BF",
      "AssemblyDependencyIndices": [
        5,
        10,
        1,
        4,
        11
      ]
    },
    {
      "FullName": "Unity.Jobs.IJobForExtensions+ForJobStruct`1[[UnityEngine.Rendering.Universal.SliceCullingJob, Unity.RenderPipelines.Universal.Runtime, Version=0.0.0.0, Culture=neutral, PublicKeyToken=null]], UnityEngine.CoreModule, Version=0.0.0.0, Culture=neutral, PublicKeyToken=null::Execute(UnityEngine.Rendering.Universal.SliceCullingJob&, Unity.RenderPipelines.Universal.Runtime, Version=0.0.0.0, Culture=neutral, PublicKeyToken=null|System.IntPtr, mscorlib, Version=4.0.0.0, Culture=neutral, PublicKeyToken=b77a5c561934e089|System.IntPtr, mscorlib, Version=4.0.0.0, Culture=neutral, PublicKeyToken=b77a5c561934e089|Unity.Jobs.LowLevel.Unsafe.JobRanges&, UnityEngine.CoreModule, Version=0.0.0.0, Culture=neutral, PublicKeyToken=null|System.Int32, mscorlib, Version=4.0.0.0, Culture=neutral, PublicKeyToken=b77a5c561934e089)",
      "ModuleOptionsHash": 15221144590354301703,
      "ModuleHash": "22663a7e1d353efa3f3efb09173639ff",
      "LinkName": "E194DDA76BFCD7EC",
      "AssemblyDependencyIndices": [
        5,
        10,
        1,
        2,
        4,
        11
      ]
    },
    {
      "FullName": "Unity.Jobs.IJobExtensions+JobStruct`1[[UnityEngine.Rendering.Universal.DecalCreateDrawCallSystem+DrawCallJob, Unity.RenderPipelines.Universal.Runtime, Version=0.0.0.0, Culture=neutral, PublicKeyToken=null]], UnityEngine.CoreModule, Version=0.0.0.0, Culture=neutral, PublicKeyToken=null::Execute(UnityEngine.Rendering.Universal.DecalCreateDrawCallSystem+DrawCallJob&, Unity.RenderPipelines.Universal.Runtime, Version=0.0.0.0, Culture=neutral, PublicKeyToken=null|System.IntPtr, mscorlib, Version=4.0.0.0, Culture=neutral, PublicKeyToken=b77a5c561934e089|System.IntPtr, mscorlib, Version=4.0.0.0, Culture=neutral, PublicKeyToken=b77a5c561934e089|Unity.Jobs.LowLevel.Unsafe.JobRanges&, UnityEngine.CoreModule, Version=0.0.0.0, Culture=neutral, PublicKeyToken=null|System.Int32, mscorlib, Version=4.0.0.0, Culture=neutral, PublicKeyToken=b77a5c561934e089)",
      "ModuleOptionsHash": 15221144590354301703,
      "ModuleHash": "3bf722d4391a42791ab097abee4fa66b",
      "LinkName": "76EDAD8C20800D03",
      "AssemblyDependencyIndices": [
        5,
        10,
        1,
        4,
        2,
        11
      ]
    },
    {
      "FullName": "Unity.Jobs.IJobForExtensions+ForJobStruct`1[[UnityEngine.Rendering.Universal.ZBinningJob, Unity.RenderPipelines.Universal.Runtime, Version=0.0.0.0, Culture=neutral, PublicKeyToken=null]], UnityEngine.CoreModule, Version=0.0.0.0, Culture=neutral, PublicKeyToken=null::Execute(UnityEngine.Rendering.Universal.ZBinningJob&, Unity.RenderPipelines.Universal.Runtime, Version=0.0.0.0, Culture=neutral, PublicKeyToken=null|System.IntPtr, mscorlib, Version=4.0.0.0, Culture=neutral, PublicKeyToken=b77a5c561934e089|System.IntPtr, mscorlib, Version=4.0.0.0, Culture=neutral, PublicKeyToken=b77a5c561934e089|Unity.Jobs.LowLevel.Unsafe.JobRanges&, UnityEngine.CoreModule, Version=0.0.0.0, Culture=neutral, PublicKeyToken=null|System.Int32, mscorlib, Version=4.0.0.0, Culture=neutral, PublicKeyToken=b77a5c561934e089)",
      "ModuleOptionsHash": 15221144590354301703,
      "ModuleHash": "33b4e6ded962ae0e17cc475638f82e5f",
      "LinkName": "AE539C59A9E52E70",
      "AssemblyDependencyIndices": [
        5,
        10,
        1,
        4,
        2,
        11
      ]
    },
    {
      "FullName": "UnityEngine.Jobs.IJobParallelForTransformExtensions+TransformParallelForLoopStruct`1[[UnityEngine.Rendering.Universal.DecalUpdateCachedSystem+UpdateTransformsJob, Unity.RenderPipelines.Universal.Runtime, Version=0.0.0.0, Culture=neutral, PublicKeyToken=null]], UnityEngine.CoreModule, Version=0.0.0.0, Culture=neutral, PublicKeyToken=null::Execute(UnityEngine.Rendering.Universal.DecalUpdateCachedSystem+UpdateTransformsJob&, Unity.RenderPipelines.Universal.Runtime, Version=0.0.0.0, Culture=neutral, PublicKeyToken=null|System.IntPtr, mscorlib, Version=4.0.0.0, Culture=neutral, PublicKeyToken=b77a5c561934e089|System.IntPtr, mscorlib, Version=4.0.0.0, Culture=neutral, PublicKeyToken=b77a5c561934e089|Unity.Jobs.LowLevel.Unsafe.JobRanges&, UnityEngine.CoreModule, Version=0.0.0.0, Culture=neutral, PublicKeyToken=null|System.Int32, mscorlib, Version=4.0.0.0, Culture=neutral, PublicKeyToken=b77a5c561934e089)",
      "ModuleOptionsHash": 15221144590354301703,
      "ModuleHash": "301a7625e1f91c648b9e5dc42464ad29",
      "LinkName": "15301ED6F7D48D74",
      "AssemblyDependencyIndices": [
        5,
        10,
        1,
        4,
        2,
        11
      ]
    },
    {
      "FullName": "Unity.Jobs.IJobForExtensions+ForJobStruct`1[[UnityEngine.Rendering.Universal.ReorderJob`1[[UnityEngine.Rendering.VisibleLight, UnityEngine.CoreModule, Version=0.0.0.0, Culture=neutral, PublicKeyToken=null]], Unity.RenderPipelines.Universal.Runtime, Version=0.0.0.0, Culture=neutral, PublicKeyToken=null]], UnityEngine.CoreModule, Version=0.0.0.0, Culture=neutral, PublicKeyToken=null::Execute(UnityEngine.Rendering.Universal.ReorderJob`1[[UnityEngine.Rendering.VisibleLight, UnityEngine.CoreModule, Version=0.0.0.0, Culture=neutral, PublicKeyToken=null]]&, Unity.RenderPipelines.Universal.Runtime, Version=0.0.0.0, Culture=neutral, PublicKeyToken=null|System.IntPtr, mscorlib, Version=4.0.0.0, Culture=neutral, PublicKeyToken=b77a5c561934e089|System.IntPtr, mscorlib, Version=4.0.0.0, Culture=neutral, PublicKeyToken=b77a5c561934e089|Unity.Jobs.LowLevel.Unsafe.JobRanges&, UnityEngine.CoreModule, Version=0.0.0.0, Culture=neutral, PublicKeyToken=null|System.Int32, mscorlib, Version=4.0.0.0, Culture=neutral, PublicKeyToken=b77a5c561934e089)",
      "ModuleOptionsHash": 15221144590354301703,
      "ModuleHash": "ca6768d553c05cf37b284debd7e06dc1",
      "LinkName": "D61D1C0A6F02814B",
      "AssemblyDependencyIndices": [
        5,
        10,
        1,
        11,
        4
      ]
    },
    {
      "FullName": "Unity.Jobs.IJobForExtensions+ForJobStruct`1[[UnityEngine.Rendering.Universal.ReorderJob`1[[UnityEngine.Rendering.Universal.LightMinMaxZ, Unity.RenderPipelines.Universal.Runtime, Version=0.0.0.0, Culture=neutral, PublicKeyToken=null]], Unity.RenderPipelines.Universal.Runtime, Version=0.0.0.0, Culture=neutral, PublicKeyToken=null]], UnityEngine.CoreModule, Version=0.0.0.0, Culture=neutral, PublicKeyToken=null::Execute(UnityEngine.Rendering.Universal.ReorderJob`1[[UnityEngine.Rendering.Universal.LightMinMaxZ, Unity.RenderPipelines.Universal.Runtime, Version=0.0.0.0, Culture=neutral, PublicKeyToken=null]]&, Unity.RenderPipelines.Universal.Runtime, Version=0.0.0.0, Culture=neutral, PublicKeyToken=null|System.IntPtr, mscorlib, Version=4.0.0.0, Culture=neutral, PublicKeyToken=b77a5c561934e089|System.IntPtr, mscorlib, Version=4.0.0.0, Culture=neutral, PublicKeyToken=b77a5c561934e089|Unity.Jobs.LowLevel.Unsafe.JobRanges&, UnityEngine.CoreModule, Version=0.0.0.0, Culture=neutral, PublicKeyToken=null|System.Int32, mscorlib, Version=4.0.0.0, Culture=neutral, PublicKeyToken=b77a5c561934e089)",
      "ModuleOptionsHash": 15221144590354301703,
      "ModuleHash": "728be6882b25bc7921fe7ac51799db6f",
      "LinkName": "5FCDD8F068DD2902",
      "AssemblyDependencyIndices": [
        5,
        10,
        1,
        4,
        11
      ]
    }
  ]
}